%YAML 1.1
%TAG !u! tag:unity3d.com,2011:
--- !u!1045 &1
EditorBuildSettings:
  m_ObjectHideFlags: 0
  serializedVersion: 2
  m_Scenes:
  - enabled: 1
    path: Assets/_Scenes/Main Menu.unity
    guid: 4ead2809d86cfdf409d57f7119cdcd64
  - enabled: 1
    path: Assets/_Scenes/Game.unity
    guid: 824603d52ecdae54fb5d83f7c54ba54d
  m_configObjects: {}
